"Story","Title","Result","Date","Stability","Duration (s)"
"Autenticacion en app Skyairline","Inicio de sesion con correo, exitoso Chile","SUCCESS","2022-07-07T17:41:47.0432882-05:00[America/Bogota]","0.0","85.2"
"Autenticacion en app Skyairline","Inicio de sesion con correo, exitoso Perú","FAILURE","2022-07-07T17:43:13.3415309-05:00[America/Bogota]","0.0","62.51"
