"Story","Title","Result","Date","Stability","Duration (s)"
"Autenticacion en app Skyairline","Inicio de sesion con correo, exitoso Perú","FAILURE","2022-08-05T10:49:47.8032145-05:00[America/Bogota]","0.0","53.14"
"Autenticacion en app Skyairline","Inicio de sesion con correo, credenciales incorrectas","FAILURE","2022-08-05T10:53:03.5150825-05:00[America/Bogota]","0.0","35.28"
"Autenticacion en app Skyairline","Login invitado Peru","FAILURE","2022-08-05T11:08:17.883299-05:00[America/Bogota]","0.0","50.14"
