"Story","Title","Result","Date","Stability","Duration (s)"
"Autenticacion en app Skyairline","Login invitado","SUCCESS","2022-08-05T10:15:32.3914114-05:00[America/Bogota]","0.0","49.1"
"Autenticacion en app Skyairline","Inicio de sesion con correo, exitoso Chile","SUCCESS","2022-08-05T10:48:58.5223341-05:00[America/Bogota]","0.0","48.33"
"Autenticacion en app Skyairline","Inicio de sesion con correo, exitoso Perú","FAILURE","2022-08-05T10:49:47.8032145-05:00[America/Bogota]","0.0","53.14"
"Autenticacion en app Skyairline","Login invitado Argentina","SUCCESS","2022-08-05T10:52:16.8535302-05:00[America/Bogota]","0.0","45.69"
"Autenticacion en app Skyairline","Inicio de sesion con correo, credenciales incorrectas","FAILURE","2022-08-05T10:53:03.5150825-05:00[America/Bogota]","0.0","35.28"
"Autenticacion en app Skyairline","Login invitado Chile","SUCCESS","2022-08-05T11:00:56.8647677-05:00[America/Bogota]","0.0","53.98"
"Autenticacion en app Skyairline","Login invitado Peru","FAILURE","2022-08-05T11:08:17.883299-05:00[America/Bogota]","0.0","50.14"
"Búsqueda de vuelos","Busqueda de vuelos solo ida en el HM Chile","SUCCESS","2022-07-11T14:40:00.7462157-05:00[America/Bogota]","0.0","67.84"
"Compra desde Initial Sale","Compra desde IS","SUCCESS","2022-07-20T11:34:29.3386404-05:00[America/Bogota]","0.0","201.31"
